{
  "entrypoint": "index.html",
  "shell": "src/my-app.html",
  "fragments": [
    "src/student-view.html",
    "src/teacher-view.html",
    "src/my404-view.html"
  ],
  "sourceGlobs": [
   "src/**/*",
   "images/**/*",
   "bower.json"
  ],
  "includeDependencies": [
    "manifest.json",
    "bower_components/webcomponentsjs/webcomponents-lite.min.js"
  ]
}